start	end	label	index	security	origin
1.64294725875765	2.1022070582107	DC	1	0.0382716499544211	chunk_12~10~0.5
4.63907071233234	4.79215731215002	DC	2	0.0127572166514737	chunk_12~10~0.5
4.7866899335851	5.08192837609064	DC	3	0.0246032035421279	chunk_12~10~0.5
