start	end	label	index	security	origin
0.30526196987455	0.469283326822069	DC	1	0.0136684464122933	chunk_5~10~0.5
4.04449329339758	4.17024300039068	DC	2	0.0104791422494249	chunk_5~10~0.5
9.0229970916352	9.16514893432304	DC	3	0.0118459868906541	chunk_5~10~0.5
